{
  "home": "Home",
  "total_income": "Total Income",
  "currency": "Baht",
  "currency_icon": "฿",
  "request_payment": "Request Payment",
  "request_payment_money": "Send Payment",
  "recent_order": "Recent order",
  "view_all": "View all",
  "refresh_text": {
    "title": "Pull to refresh",
    "loading": "Refreshing..."
  },
  "menu": {
    "home": {
      "title": "Home",
      "icon": "icon_home.svg",
      "component": "HomePage"
    },
    "profile": {
      "title": "Profile",
      "icon": "icon_profile.svg",
      "component": "InformationsPage"
    },
    "paymentlink": {
      "title": "Payment Link",
      "icon": "icon_paymentLink.svg",
      "component": "PaymentPage"
    },
    "requestMoney": {
      "title": "Request Money",
      "icon": "icon_requestMoney.svg",
      "component": "FriendGetFriendPage"
    },
    "report": {
      "title": "Report",
      "icon": "icon_report.svg",
      "component": "ReceiveMoneyPage"
    },
    "help": {
      "title": "Help",
      "icon": "icon_help.svg",
      "component": "SettingsPage"
    }
  },
  "language": {
    "subbar": "En",
    "title": "Language",
    "english": "English",
    "thai": "Thai"
  },
  "changePassword": {
    "headers": "Change Password",
    "password_old": "Current password",
    "password_new": "New Password",
    "password_new_confirm": "New Password Confirm",
    "btnsave": "Save"
  },
  "orders": {
    "no_orders": "Your order cannot be found in our record."
  },
  "completed": "Completed",
  "rejected": "Rejected",
  "pending": "Pending",
  "not_submit": "Not Submit",
  "charge_back": "Charge Back",
  "cdd": "Customer due diligence",
  "vbv_rejected": "VBV Rejected",
  "refund": "Refund",
  "vbv_checking": "VBV Checking",
  "bankaccount": "Bank Account",
  "profile": "Profile",
  "contactus": "Contact-us",
  "taxinvoice": "Tax invoice",
  "changepassword": "Change password",
  "invite": "Invite friends",
  "logout": "Logout",
  "recent_order": "Recent Order",
  "all": "All",
  "approve": "Approve",
  "refuse": "Refuse",
  "pending": "Pending",
  "cancel": "Cancel",
  "sendpaymentamount": "Send Payment Amount",
  "buyeraddress": "Buyer's Address",
  "enterdetail": "Enter detail",
  "detail": "Product Detail",
  "submit": "Continue",
  "link": "link",
  "request_confirm": "Confirmation Payment Amount",
  "amount": "Amount",
  "purchaseorder": "Purchase Order",
  "keyword": "Keyword",
  "date": "Date",
  "paymentstatus": "Payment Status",
  "paymentchannel": "Paymeny Channel",
  "specifykeyword": "Specify Keyword",
  "from": "From",
  "to": "To",
  "type": "Type",
  "btnsearch": "Search",
  "request_money": "Request Money",
  "requiredaddress": "Required Address",
  "report": "Report",
  "list": "List",
  "revenue": "Revenue",
  "email": "Email",
  "password": "Password",
  "login": "Login",
  "forgotpass": "forgot your password?",
  "donthaveaccount": "Don't have an account?",
  "signup": "Sign Up",
  "qrcode_desc": "let's your client scan qr code and pay from social media immediately.",
  "qrcode_link": "Shared and send link above to your client and your client pay from social media immediately.",
  "payment": "Payment",
  "share": "Share",
  "save": "Save",
  "btncopylink": "Copy Link",
  "signup": "Sign Up",
  "signupwithface": "Sign Up With Facebook",
  "or": "OR",
  "firstname": "First Name",
  "lastname": "Last Name",
  "website": "Website",
  "bysigning": "By signing up, you agree to our",
  "terms": "Terms & Conditions",
  "haveaccount": "Have an account?",
  "enteryoumerchantid": "Enter your Merchant ID below and we'll send password to your e-mail.",
  "btnsend": "Send",
  "paymentlink": "Payment Link",
  "shopdata": "Shop information",
  "btnconfirmlink": "Confirm Link",
  "emaillogin": "Email or Merchant ID",
  "accountname": "Account Name",
  "accountnumber": "Account Number",
  "branch": "Branch",
  "district": "District",
  "country": "Country",
  "editbankaccount": "Edit Bank Account",
  "bankname": "Bank",
  "krungsribank": "Krungsri Bank",
  "krungthaibank": "Krungthai Bank",
  "bangkokbank": "Bangkok Bank",
  "siamcommercialbank": "The Siam Commercial Bank",
  "kasikornbank": "Kasikorn Bank",
  "thanachartbank": "Thanachart Bank",
  "banktype": "Bank Type",
  "saving": "Saving",
  "currentaccount": "Current Account",
  "fixeddeposit": "Fixed Deposit",
  "bangkok": "Bangkok",
  "province": "Province",
  "thailand": "Thailand",
  "uploadbankaccount": "Upload Bank Account",
  "name": "Name",
  "domainname": "Domain Name",
  "shortdescription": "Short Description",
  "contact": "Contact",
  "address": "Address",
  "tel": "Tel.",
  "phone": "Phone",
  "fax": "Fax",
  "ordersemail": "Orders Email",
  "editprofile": "Edit Profile",
  "shopname": "Shop Name",
  "subdistrict": "Subdistrict",
  "district2": "District",
  "province": "Province",
  "country": "Country",
  "postcode": "Postcode",
  "contact_us": {
    "title": "Contact-us",
    "name": "Name",
    "contact_header": "In case you want to inquire or experiencing various problems about us. You can contact through this form.",
    "email": "Email",
    "tel": "Tel.",
    "title_type": "Title Type",
    "sub_type1": "Type 1",
    "sub_type2": "Type 2",
    "detail": "Detail",
    "btn_send": "Send"
  },
  "invoice_address": {
    "title": "Address Tax Invoice",
    "shopname": "Company Name",
    "tax_identification_number": "Tax identification number",
    "branch": "Branch",
    "address": "Address",
    "tel": "Tel.",
    "fax": "Fax",
    "email": "Email"
  },
  "edit_invoice_address": {
    "title": "Edit Address Tax Invoice",
    "shopname": "Company Name",
    "tax_identification_number": "Tax identification number",
    "branch": "Branch",
    "address": "Address",
    "subdistrict": "Subdistrict",
    "district": "District",
    "province": "Province",
    "country": "Country",
    "thailand": "Thailand",
    "postcode": "Postcode",
    "tel": "Tel.",
    "fax": "Fax",
    "email": "Email",
    "btn_save": "Save"
  },
  "revenue_page": {
    "title": "Revenue",
    "all": "All",
    "transferred": "Transferred",
    "waiting_to_transfer": "Waiting to transfer"
  },
  "help_page": {
    "title": "Help",
    "q_a_popular": "Q & A Popular",
    "terms_conditions": "Terms & Conditions"
  },
  "q_a_popular": "Q & A Popular",
  "terms_page": {
    "title": "Terms & Conditions",
    "title_content": "Term & Conditions simplified summarized was simple to provide comprehend. Details as follows You will have to accept all conditions. With a click on the option was accept to perform in the following order.",
    "content1": "1. Merchant Qualification Not contrary to the Law, Do not to conduct business or product that is illegal or against the morality such as gambling, Pornography or sex-related services, alcohol, drug, pirated products, distribute food, cosmetics, health products. The team will be check and approve a particular product is certified by Food and Drug Administration. Or agency accurate law.",
    "detail": "If it is detected that merchant are conducting illegal business, we will closed, hold all funds and Proceedings with merchant.",
    "content2": "2. Term & Conditions of revenue transfer The system will be summary of the revenue for 1-15 and 16-31 on each month and transfer the revenue amount and after deducting fees to merchants on the 25th and on th 10th of the following month and deposited into the merchant's bank account."
  },
  "purchase_detail_page": {
    "title": "Order details",
    "productname": "Product Name :",
    "payment_information": "Payment Information",
    "total": "Total",
    "payment_channel": "Payment channel",
    "order_date": "Order date",
    "card_type": "Card type",
    "cardholder_name": "Cardholder Name",
    "card_number": "Card Number",
    "issuing_bank": "Issuing Bank (real)",
    "confirmation": "Confirmation",
    "note": "Note",
    "buyer_information": "Buyer information",
    "name": "Name",
    "address": "Address",
    "tel": "Tel.",
    "phone": "Phone",
    "fax": "Fax",
    "email": "Email",
    "btn_refund": "Refund / Cancellation"
  },
  "notification": "Notification",
  "recent": "Recent",
  "revenue_detail_page": {
    "title": "Revenue details"
  }
}
