{
  "home": "หน้าหลัก",
  "total_income": "ยอดรวมรายได้",
  "currency": "บาท",
  "currency_icon": "฿",
  "request_payment": "ชำระเงิน",
  "request_payment_money": "ชำระเงินระบุจำนวน",
  "recent_order": "คำสั่งซื้อล่าสุด",
  "view_all": "ดูทั้งหมด",
  "refresh_text": {
    "title": "ดึงลงเพื่อรีเฟรช",
    "loading": "กำลังโหลดข้อมูล..."
  },
  "menu": {
    "home": {
      "title": "หน้าแรก",
      "icon": "icon_home.svg",
      "component": "HomePage"
    },
    "profile": {
      "title": "ข้อมูลผู้ใช้",
      "icon": "icon_profile.svg",
      "component": "InformationsPage"
    },
    "paymentlink": {
      "title": "ลิงค์รับชำระเงิน",
      "icon": "icon_paymentLink.svg",
      "component": "PaymentPage"
    },
    "requestMoney": {
      "title": "ขอรับชำระเงิน",
      "icon": "icon_requestMoney.svg",
      "component": "FriendGetFriendPage"
    },
    "report": {
      "title": "รายงาน",
      "icon": "icon_report.svg",
      "component": "ReceiveMoneyPage"
    },
    "help": {
      "title": "ช่วยเหลือ",
      "icon": "icon_help.svg",
      "component": "SettingsPage"
    }
  },
  "language": {
    "subbar": "Th",
    "title": "ภาษา",
    "english": "อังกฤษ",
    "thai": "ไทย"
  },
  "changePassword": {
    "headers": "เปลี่ยนรหัสผ่าน",
    "password_old": "รหัสผ่านปัจจุบัน",
    "password_new": "รหัสผ่านใหม่",
    "password_new_confirm": "ยืนยันรหัสผ่านใหม่อีกครั้ง",
    "btnsave":"บันทึก"
  },
  "orders":{
    "no_orders":"ไม่พบคำสั่งซื้อของคุณในบันทึกของเรา"
  },
  "completed": "อนุมัติ",
  "rejected": "ไม่อนุมัติ",
  "pending": "ระหว่างตรวจสอบ",
  "not_submit": "กรอกข้อมูลไม่ครบ",
  "charge_back": "ปฏิเสธการชำระเงินโดยผู้ถือบัตร",
  "cdd": "แสดงตัวตน",
  "vbv_rejected": "ไม่อนุมัติ (VBV ไม่ผ่าน)",
  "refund": "คืนเงินเรียบร้อย",
  "vbv_checking": "ตรวจสอบ VBV (ไม่ได้กรอกรหัส OTP)",

  "bankaccount": "ข้อมูลบัญชีธนาคาร",
  "profile": "ข้อมูลส่วนตัว",
  "contactus": "ติดต่อเรา",
  "taxinvoice": "ใบกำกับภาษี",
  "changepassword": "เปลี่ยนรหัสผ่าน",
  "invite": "แนะนำเพื่อน",
  "logout": "ออกจากระบบ",

  "recent_order": "คำสั่งซื้อ",
  "all": "ทั้งหมด",
  "approve": "อนุมัติ",
  "refuse": "ไม่อนุมัติ",
  "pending": "รออนุมัติ",
  "cancel": "ยกเลิก",

  "sendpaymentamount": "ชำระเงินตามจำนวน",
  "buyeraddress": "ขอที่อยู่ผู้ชำระเงิน",
  "enterdetail": "ใส่รายละเอียด",
  "detail": "รายละเอียดสินค้า",
  "submit": "ดำเนินการต่อ",
  "link": "ลิ้งก์",
  "request_confirm": "ยืนยัน ชำระเงินตามจำนวน",
  "amount": "จำนวนเงิน",

  "purchaseorder": "คำสั่งซื้อ",
  "keyword": "คีย์เวิร์ด",
  "date": "วันที่",
  "paymentstatus": "สถานะการชำระเงิน",
  "paymentchannel": "ช่องทางการชำระเงิน",
  "specifykeyword": "ระบุคีย์เวิร์ด",
  "from": "จาก",
  "to": "ถึง",
  "type": "ประเภท",
  "btnsearch": "ค้นหา",

  "request_money": "ขอชำระเงิน",
  "requiredaddress": "ต้องการที่อยู่",

  "report": "รายงาน",
  "list": "รายการ",
  "revenue": "รายรับ",

  "email": "อีเมล",
  "password": "รหัสผ่าน",
  "login": "เข้าสู่ระบบ",
  "forgotpass": "ลืมรหัสผ่าน ?",
  "donthaveaccount": "ยังไม่มีบัญชีผู้ใช้?",
  "signup": "สมัคร",

  "qrcode_desc": "เพียงแค่ใช้โทรศัพท์มือถือสแกนภาพ QR Code ลูกค้าของคุณก็สามารถชำระเงินผ่านช่องทาง Social Media ต่างๆ ได้ทันที",
  "qrcode_link": "เพียงแค่ แชร์ หรือส่ง ลิงก์ ด้านบนให้กับลูกค้าลูกค้าของคุณก็สามารถชำระเงินผ่านช่องทางโซเชียลมีเดีย ต่างๆ ได้ทันที",

  "payment": "ชำระเงิน",
  "share": "แชร์",
  "save": "บันทึก",
  "btncopylink": "คัดลอกลิงก์",

  "signup": "สมัคร",
  "signupwithface": "สมัครด้วย Facebook",
  "or": "หรือ",
  "firstname": "ชื่อ",
  "lastname": "นามสกุล",
  "website": "เว็บไซต์",
  "bysigning": "การลงชื่อสมัครถือว่าคุณยอมรับเงื่อนไขของเรา",
  "terms": "เงื่อนไขการให้บริการ",
  "haveaccount": "มีบัญชีแล้ว?",

  "enteryoumerchantid": "กรอก Merchant ID ของคุณด้านล่าง และเราจะส่งรหัสผ่านไปยัง e-mail ของคุณ",
  "btnsend": "ส่ง",
  "paymentlink": "ชำระเงิน",
  "shopdata": "ข้อมูลร้านค้า",

  "btnconfirmlink": "ยืนยันลิงก์",

  "emaillogin": "อีเมล หรือ Merchant ID",

  "accountname": "ชื่อบัญชี",
  "accountnumber": "เลขที่บัญชี",

  "branch": "สาขา",
  "district": "เขต",
  "country": "ประเทศ",
  "editbankaccount": "แก้ไขข้อมูลบัญชีธนาคาร",
  "bankname": "ธนาคาร",
  "krungsribank": "ธนาคารกรุงศรีอยุธยา",
  "krungthaibank": "ธนาคารกรุงไทย",
  "bangkokbank": "ธนาคารกรุงเทพ",
  "siamcommercialbank": "ธนาคารไทยพาณิชย์",
  "kasikornbank": "ธนาคารกสิกรไทย",
  "thanachartbank": "ธนาคารธนชาติ",
  "banktype": "ประเภทบัญชี",
  "saving": "ออมทรัพย์",
  "currentaccount": "กระแสรายวัน",
  "fixeddeposit": "ฝากประจำ",
  "bangkok": "กรุงเทพฯ",
  "province": "ต่างจังหวัด",
  "thailand": "ประเทศไทย",
  "uploadbankaccount": "อัพโหลดบัญชีธนาคาร",

  "name":"ชื่อ-นามสกุล",
  "domainname":"ชื่อโดเมน",
  "shortdescription":"คำอธิบายร้านแบบย่อ",
  "contact":"ข้อมูลติดต่อ",
  "address":"ที่อยู่",
  "tel":"โทรศัพท์",
  "phone":"โทรศัพท์มือถือ",
  "fax":"โทรสาร",
  "ordersemail":"อีเมลสำหรับสั่งสินค้า",

  "editprofile":"แก้ไขข้อมูลส่วนตัว",
  "shopname":"ชื่อบริษัท / ร้าน",
  "subdistrict":"แขวง / ตำบล",
  "district2":"เขต / อำเภอ",
  "province":"จังหวัด",
  "country":"ประเทศ",
  "postcode":"รหัสไปรษณีย์",

  "contact_us":{
    "title":"ติดต่อเรา",
    "name":"ชื่อ",
    "contact_header":"ในกรณีที่คุณต้องการสอบถามข้อมูล หรือประสบปัญหาต่างๆ เกี่ยวกับการใช้งาน คุณสามารถติดต่อได้ผ่านฟอร์มนี้",
    "email":"อีเมล",
    "tel":"โทรศัพท์",
    "title_type":"หัวข้อ",
    "sub_type1":"หัวข้อ 1",
    "sub_type2":"หัวข้อ 2",
    "detail":"รายละเอียด",
    "btn_send":"ส่ง"
  },
  "invoice_address":{
    "title":"ที่อยู่ใบกำกับภาษี",
    "shopname":"ชื่อบริษัท",
    "tax_identification_number":"เลขประจำตัวผู้เสียภาษี",
    "branch":"สาขา",
    "address":"ที่อยู่",
    "tel":"โทรศัพท์",
    "fax":"โทรสาร",
    "email":"อีเมล"
  },
  "edit_invoice_address":{
    "title":"แก้ไขที่อยู่ใบกำกับภาษี",
    "shopname":"ชื่อบริษัท",
    "tax_identification_number":"เลขประจำตัวผู้เสียภาษี",
    "branch":"สาขา",
    "address":"ที่อยู่",
    "subdistrict":"แขวง / ตำบล",
    "district":"เขต / อำเภอ",
    "province":"จังหวัด",
    "country":"ประเทศ",
    "thailand":"ประเทศไทย",
    "postcode":"รหัสไปรษณีย์",
    "tel":"โทรศัพท์",
    "fax":"โทรสาร",
    "email":"อีเมล",
    "btn_save":"บันทึก"
  },
  "revenue_page":{
    "title":"รายรับ",
    "all":"ทั้งหมด",
    "transferred":"โอนแล้ว",
    "waiting_to_transfer":"รอโอน"
  },
  "help_page":{
    "title":"ช่วยเหลือ",
    "q_a_popular":"ถาม - ตอบยอดนิยม",
    "terms_conditions":"เงื่อนไขการให้บริการ"
  },
  "q_a_popular":"ถาม - ตอบยอดนิยม",
  "terms_page":{
    "title":"เงื่อนไขการให้บริการ",
    "title_content":"ข้อกำหนดและเงื่อนไขสรุปง่าย ๆ เพื่อให้เข้าใจรายละเอียดดังนี้คุณจะต้องยอมรับเงื่อนไขทั้งหมด ด้วยการคลิกที่ตัวเลือก้ยอมรับการดำเนินการตามลำดับต่อไปนี้",
    "content1":"1. คุณสมบัติของผู้ค้าไม่ขัดต่อกฎหมาย, อย่าดำเนินธุรกิจหรือผลิตภัณฑ์ที่ผิดกฎหมายหรือขัดต่อศีลธรรมเช่นการพนัน, สื่อลามกอนาจารหรือบริการทางเพศ, แอลกอฮอล์, ยาเสพติด, ผลิตภัณฑ์ละเมิดลิขสิทธิ์, จำหน่ายอาหาร, เครื่องสำอาง, ผลิตภัณฑ์เพื่อสุขภาพ ทีมงานจะทำการตรวจสอบและรับรองผลิตภัณฑ์ที่ได้รับการรับรองจากสำนักงานคณะกรรมการอาหารและยา หรือหน่วยงานที่ถูกต้องตามกฎหมาย",
    "detail":"หากตรวจพบว่าผู้ขายดำเนินธุรกิจที่ผิดกฎหมาย,เราจะปิดทำการเก็บเงินทั้งหมดและการดำเนินการกับผู้ค้า",
    "content2":"2. ระยะเวลาและเงื่อนไขในการโอนรายได้ระบบจะสรุปยอดรายได้ 1-15 และ 16-31 ในแต่ละเดือนและโอนเงินรายได้และหลังจากหักค่าธรรมเนียมสำหรับร้านค้าในวันที่ 25 และวันที่ 10 ของเดือนถัดไปและฝากเข้าไว้ในบัญชีธนาคารของผู้ค้า"
  },
  "purchase_detail_page":{
    "title":"รายละเอียดคำสั่งซื้อ",
    "productname":"ชื่อผลิตภัณฑ์ :",
    "payment_information":"ข้อมูลการชำระเงิน",
    "total":"ยอดรวม",
    "payment_channel":"ช่องทางการชำระเงิน",
    "order_date":"วันที่สั่งซื้อ",
    "card_type":"ประเภทบัตร",
    "cardholder_name":"ชื่อผู้ถือบัตร",
    "card_number":"หมายเลขบัตร",
    "issuing_bank":"ธนาคารผู้ออกบัตร(จริง)",
    "confirmation":"การยืนยันตัวตน",
    "note":"หมายเหตุ",
    "buyer_information":"ข้อมูลผู้ซื้อ",
    "name":"ชื่อ-นามสกุล",
    "address":"ที่อยู่",
    "tel":"โทรศัพท์",
    "phone":"โทรศัพท์มือถือ",
    "fax":"โทรสาร",
    "email":"อีเมล",
    "btn_refund":"คืนเงิน / ยกเลิกรายการ"
  },
  "notification":"แจ้งเตือน",
  "recent":"ล่าสุด",
  "revenue_detail_page":{
    "title":"รายละเอียดรายรับ"
  }
}
