{
    "merchant_login": {
        "remark": "done",
        "request": {
            "username": "test@efrainc.com // admin account",
            "password": "1234",
            "ignore": "wbR+r8kgZOg4QGX7qPxsug=="
        },
        "response": {
            "code": 200,
            "message": "",
            "token": "",
            "profile_img": "",
            "username": "",
            "url": ""
        }
    },
    "merchant_login_facebook": {
        "request": {
            "fb_account_id": "",
            "fb_token": ""
        },
        "response": {
            "code": 200,
            "message": "",
            "token": "",
            "profile_img": "",
            "username": "",
            "url": ""
        }
    },
    "merchant_register": {
        "remark": "done",
        "request": {
            "shopname": "",
            "name": "parin",
            "surname": "kanthakamala",
            "email": ""
        },
        "response": {
            "code": 200,
            "message": "",
            "token": "",
            "profile_img": "",
            "username": "",
            "url": ""
        }
    },
    "merchant_register_facebook": {
        "request": {
            "fb_account_id": "",
            "fb_token": "",
            "username": "",
            "email": ""
        },
        "response": {
            "code": 200,
            "message": "",
            "token": "",
            "profile_img": null,
            "username": "",
            "url": ""
        }
    },
    "total_income": {
        "request": {
            "token": ""
        },
        "response": {
            "code": 200,
            "message": "",
            "token": "",
            "additional_details": "",
            "order_refund": "",
            "total_incom": ""
        }
    },
    "total_incom_info": {
        "request": {
            "token": "",
            "sort_by": "date",
            "start_date": "",
            "end_date": ""
        },
        "response": {
            "code": 200,
            "message": "",
            "token": "",
            "amount_visa": "",
            "amount_mastercard": "",
            "amount_jcb": "",
            "amount_cu": "",
            "amount_cs": "",
            "amount_paypal": "",
            "amount_bitcoin": "",
            "amount_mpos": "",
            "amount_banking": "",
            "amount_cod": "",
            "addition_amount": "",
            "total_amount": "",
            "fee_all_card": "",
            "fee_american_exp": "",
            "fee_paypal": "",
            "fee_mpos": "",
            "fee_cod": "",
            "additional_details": "",
            "order_refund": "",
            "total_incom": ""
        }
    },
    "recent_order": {
        "request": { 
            "token": "",
            "sort_by": "date / status",
            "limit": "",
            "offset": ""
        },
        "response": {
            "code": 200,
            "message": "",
            "data": {
                "token": "",
                "order_id": "",
                "order_detail": "",
                "order_card": "",
                "order_status": "",
                "order_total": "",
                "order_time": ""
            },
            "totol": "",
            "pages": "",
            "current": ""
        }
    }
}
