<?xml version="1.0" encoding="utf-8"?>
<!-- Generator: Adobe Illustrator 19.0.0, SVG Export Plug-In . SVG Version: 6.00 Build 0)  -->
<svg version="1.1" id="Layer_1" xmlns="http://www.w3.org/2000/svg" xmlns:xlink="http://www.w3.org/1999/xlink" x="0px" y="0px"
	 viewBox="0 0 512 512" style="enable-background:new 0 0 512 512;" xml:space="preserve">
<style type="text/css">
	.st0{fill:#FFFFFF;}
	.st1{fill:#010101;}
</style>
<g id="XMLID_436_">
	<g id="XMLID_438_">
		<path id="XMLID_374_" class="st0" d="M248.1,437.4c-99.8,0-181-81.2-181-181c0-99.8,81.2-181,181-181c4.7,0,8.5,3.8,8.5,8.5
			c0,4.7-3.8,8.5-8.5,8.5c-90.5,0-164.1,73.6-164.1,164.1s73.6,164.1,164.1,164.1s164.1-73.6,164.1-164.1
			c0-65.6-38.9-124.8-99.2-150.7c-4.3-1.8-6.3-6.8-4.4-11.1c1.9-4.3,6.8-6.3,11.1-4.4c66.5,28.7,109.4,93.9,109.4,166.3
			C429.1,356.3,347.9,437.4,248.1,437.4z"/>
	</g>
	<g id="XMLID_437_">
		<path id="XMLID_370_" class="st0" d="M328.9,264.9h-80.7c-4.7,0-8.5-3.8-8.5-8.5V83.9c0-4.7,3.8-8.5,8.5-8.5
			c4.7,0,8.5,3.8,8.5,8.5V248h72.3c4.7,0,8.5,3.8,8.5,8.5C337.3,261.1,333.5,264.9,328.9,264.9z"/>
	</g>
</g>
<g id="XMLID_985_">
	<g id="XMLID_997_">
		<path id="XMLID_1001_" class="st1" d="M1391-527.5c3.2,0,3.2-5,0-5C1387.8-532.5,1387.8-527.5,1391-527.5L1391-527.5z"/>
	</g>
</g>
</svg>
