<?xml version="1.0" encoding="utf-8"?>
<!-- Generator: Adobe Illustrator 19.0.0, SVG Export Plug-In . SVG Version: 6.00 Build 0)  -->
<svg version="1.1" id="Layer_1" xmlns="http://www.w3.org/2000/svg" xmlns:xlink="http://www.w3.org/1999/xlink" x="0px" y="0px"
	 viewBox="0 0 512 512" style="enable-background:new 0 0 512 512;" xml:space="preserve">
<style type="text/css">
	.st0{fill:#FFFFFF;}
	.st1{fill:#010101;}
</style>
<g id="XMLID_228_">
	<g id="XMLID_230_">
		<g id="XMLID_231_">
			<g id="XMLID_233_">
				<path id="XMLID_346_" class="st0" d="M259.1,162.5c-37.4,0-58.3,17.6-58.5,53.9h16.3c-0.5-26.3,13.4-40.3,41.5-40.3
					c20.1,0,36.9,14,36.9,34.5c0,13.2-7.2,24-16.8,33c-19.6,18-25.1,31.2-26.1,55.8h16.5c1-22.3,0.4-26.6,20.2-46.1
					c13.2-12.3,22.4-24.5,22.4-43.5C311.4,180.1,287.7,162.5,259.1,162.5z"/>
				<path id="XMLID_347_" class="st0" d="M272.4,303.1h-24l0.2-3.9c1-26.5,7.4-40.2,27.3-58.5c10.5-9.8,15.6-19.7,15.6-30.2
					c0-17.5-14.2-30.7-33.1-30.7c-13.1,0-23,3.2-29.2,9.6c-5.9,6-8.7,15-8.5,26.8l0.1,3.9h-23.9l0-3.8c0.3-37.7,21.8-57.6,62.3-57.6
					c33,0,56.1,21,56.1,51.1c0,20.1-9.4,33-23.6,46.2c-17.9,17.8-18.1,21.3-18.9,41.2L272.4,303.1z M256.3,295.6h8.8
					c0.8-19.8,1.5-25.6,21.1-45.1c13.2-12.3,21.3-23.4,21.3-40.8c0-25.6-20-43.5-48.5-43.5c-34.7,0-53,15.6-54.6,46.3h8.6
					c0.4-12.1,4-21.6,10.6-28.4c7.7-7.8,19.3-11.8,34.6-11.8c23.2,0,40.7,16.4,40.7,38.2c0,12.7-5.9,24.4-18,35.8
					C263.7,262.2,257.7,273.8,256.3,295.6z"/>
			</g>
			<g id="XMLID_232_">
				<path id="XMLID_342_" class="st0" d="M259.7,323.8c-8.1,0-14.7,6.5-14.7,14.5c0,8.1,6.6,14.6,14.7,14.6
					c8.1,0,14.7-6.5,14.7-14.6C274.4,330.3,267.9,323.8,259.7,323.8z"/>
				<path id="XMLID_343_" class="st0" d="M259.7,356.7c-10.2,0-18.5-8.3-18.5-18.4c0-10.1,8.3-18.3,18.5-18.3
					c10.2,0,18.5,8.2,18.5,18.3C278.2,348.5,269.9,356.7,259.7,356.7z M259.7,327.6c-6,0-10.9,4.8-10.9,10.8c0,6,4.9,10.8,10.9,10.8
					s10.9-4.9,10.9-10.8C270.7,332.4,265.8,327.6,259.7,327.6z"/>
			</g>
		</g>
	</g>
	<g id="XMLID_229_">
		<path id="XMLID_341_" class="st0" d="M256,435.8c-98.2,0-178.1-79.9-178.1-178.1c0-40.8,14.2-80.8,39.9-112.4
			c2.9-3.6,8.2-4.1,11.7-1.2c3.6,2.9,4.1,8.1,1.2,11.7c-23.3,28.7-36.2,64.8-36.2,101.9c0,89,72.4,161.5,161.5,161.5
			s161.5-72.4,161.5-161.5S345,96.3,256,96.3c-27.7,0-55,7.1-78.9,20.6c-4,2.3-9.1,0.8-11.3-3.2c-2.3-4-0.8-9.1,3.2-11.3
			c26.5-14.9,56.6-22.7,87.1-22.7c98.2,0,178.1,79.9,178.1,178.1C434.1,355.9,354.2,435.8,256,435.8z"/>
	</g>
</g>
<g id="XMLID_985_">
	<g id="XMLID_997_">
		<path id="XMLID_1001_" class="st1" d="M-4351-527.5c3.2,0,3.2-5,0-5C-4354.2-532.5-4354.2-527.5-4351-527.5L-4351-527.5z"/>
	</g>
</g>
</svg>
