<?xml version="1.0" encoding="utf-8"?>
<!-- Generator: Adobe Illustrator 19.0.0, SVG Export Plug-In . SVG Version: 6.00 Build 0)  -->
<svg version="1.1" id="Layer_1" xmlns="http://www.w3.org/2000/svg" xmlns:xlink="http://www.w3.org/1999/xlink" x="0px" y="0px"
	 viewBox="0 0 512 512" style="enable-background:new 0 0 512 512;" xml:space="preserve">
<style type="text/css">
	.st0{fill:#FFFFFF;}
	.st1{fill:#010101;}
</style>
<g id="XMLID_203_">
	<g id="XMLID_208_">
		<path id="XMLID_390_" class="st0" d="M365,322.8H185.7c-3.7,0-7-2.4-8-6l-61.9-211.6h-54c-4.6,0-8.3-3.7-8.3-8.3s3.7-8.3,8.3-8.3
			H122c3.7,0,7,2.4,8,6l61.9,211.6h167.7l67.8-155.5H191.8c-4.6,0-8.3-3.7-8.3-8.3s3.7-8.3,8.3-8.3h248.3c2.8,0,5.4,1.4,7,3.8
			c1.5,2.4,1.8,5.3,0.7,7.9l-75.1,172.1C371.3,320.8,368.3,322.8,365,322.8z"/>
	</g>
	<g id="XMLID_204_">
		<g id="XMLID_206_">
			<path id="XMLID_387_" class="st0" d="M201.1,440.2c-22.4,0-40.6-18.2-40.6-40.6c0-22.4,18.2-40.5,40.6-40.5s40.6,18.2,40.6,40.5
				C241.7,422,223.5,440.2,201.1,440.2z M201.1,375.8c-13.2,0-23.9,10.7-23.9,23.9c0,13.2,10.7,23.9,23.9,23.9
				c13.2,0,23.9-10.7,23.9-23.9C225,386.5,214.3,375.8,201.1,375.8z"/>
		</g>
		<g id="XMLID_205_">
			<path id="XMLID_382_" class="st0" d="M345.9,440.2c-22.4,0-40.6-18.2-40.6-40.6c0-22.4,18.2-40.5,40.6-40.5s40.6,18.2,40.6,40.5
				C386.5,422,368.3,440.2,345.9,440.2z M345.9,375.8c-13.2,0-23.9,10.7-23.9,23.9c0,13.2,10.7,23.9,23.9,23.9
				c13.2,0,23.9-10.7,23.9-23.9C369.8,386.5,359.1,375.8,345.9,375.8z"/>
		</g>
	</g>
</g>
<g id="XMLID_985_">
	<g id="XMLID_997_">
		<path id="XMLID_1001_" class="st1" d="M-1741-1104.2c3.2,0,3.2-5,0-5C-1744.2-1109.2-1744.2-1104.2-1741-1104.2L-1741-1104.2z"/>
	</g>
</g>
</svg>
