<?xml version="1.0" encoding="utf-8"?>
<!-- Generator: Adobe Illustrator 19.0.0, SVG Export Plug-In . SVG Version: 6.00 Build 0)  -->
<svg version="1.1" id="Layer_1" xmlns="http://www.w3.org/2000/svg" xmlns:xlink="http://www.w3.org/1999/xlink" x="0px" y="0px"
	 viewBox="0 0 512 512" style="enable-background:new 0 0 512 512;" xml:space="preserve">
<style type="text/css">
	.st0{fill:#FFFFFF;}
	.st1{fill:#010101;}
</style>
<g id="XMLID_235_">
	<g id="XMLID_241_">
		<path id="XMLID_357_" class="st0" d="M168.1,388.1c-4.6,0-8.3-3.7-8.3-8.3v-280c0-4.6,3.7-8.3,8.3-8.3h183.5
			c4.6,0,8.3,3.7,8.3,8.3s-3.7,8.3-8.3,8.3H176.4v271.6C176.4,384.4,172.7,388.1,168.1,388.1z"/>
	</g>
	<g id="XMLID_240_">
		<path id="XMLID_356_" class="st0" d="M412.7,441.7H99.3c-4.6,0-8.3-3.7-8.3-8.3V159.9c0-4.6,3.7-8.3,8.3-8.3l22.7,0
			c4.6,0,8.3,3.7,8.3,8.3c0,4.6-3.7,8.3-8.3,8.3h-14.4v256.9h296.8V159.9c0-4.6,3.7-8.3,8.3-8.3s8.3,3.7,8.3,8.3v273.5
			C421,438,417.3,441.7,412.7,441.7z"/>
	</g>
	<g id="XMLID_239_">
		<path id="XMLID_353_" class="st0" d="M412.7,168.2h-61.2c-4.6,0-8.3-3.7-8.3-8.3v-60c0-3.4,2-6.4,5.1-7.7c3.1-1.3,6.7-0.6,9.1,1.7
			l61.2,60c2.4,2.4,3.2,6,1.9,9.1C419.1,166.1,416.1,168.2,412.7,168.2z M359.9,151.5h32.5l-32.5-31.9V151.5z"/>
	</g>
	<g id="XMLID_238_">
		<path id="XMLID_352_" class="st0" d="M351.6,295.5H234.8c-4.6,0-8.3-3.7-8.3-8.3s3.7-8.3,8.3-8.3h116.7c4.6,0,8.3,3.7,8.3,8.3
			S356.1,295.5,351.6,295.5z"/>
	</g>
	<g id="XMLID_237_">
		<path id="XMLID_351_" class="st0" d="M351.6,233.7H234.8c-4.6,0-8.3-3.7-8.3-8.3s3.7-8.3,8.3-8.3h116.7c4.6,0,8.3,3.7,8.3,8.3
			S356.1,233.7,351.6,233.7z"/>
	</g>
	<g id="XMLID_236_">
		<path id="XMLID_350_" class="st0" d="M351.6,357.3H234.8c-4.6,0-8.3-3.7-8.3-8.3s3.7-8.3,8.3-8.3h116.7c4.6,0,8.3,3.7,8.3,8.3
			S356.1,357.3,351.6,357.3z"/>
	</g>
</g>
<g id="XMLID_985_">
	<g id="XMLID_997_">
		<path id="XMLID_1001_" class="st1" d="M-4873-527.5c3.2,0,3.2-5,0-5C-4876.2-532.5-4876.2-527.5-4873-527.5L-4873-527.5z"/>
	</g>
</g>
</svg>
