<?xml version="1.0" encoding="utf-8"?>
<!-- Generator: Adobe Illustrator 19.0.0, SVG Export Plug-In . SVG Version: 6.00 Build 0)  -->
<svg version="1.1" id="Layer_1" xmlns="http://www.w3.org/2000/svg" xmlns:xlink="http://www.w3.org/1999/xlink" x="0px" y="0px"
	 viewBox="0 0 512 512" style="enable-background:new 0 0 512 512;" xml:space="preserve">
<style type="text/css">
	.st0{fill:#FFFFFF;}
	.st1{fill:#010101;}
</style>
<g id="XMLID_184_">
	<g id="XMLID_189_">
		<path id="XMLID_448_" class="st0" d="M356.9,214.5c-26.2,0-47.5-21.3-47.5-47.5s21.3-47.5,47.5-47.5s47.5,21.3,47.5,47.5
			S383.1,214.5,356.9,214.5z M356.9,136.1c-17,0-30.9,13.9-30.9,30.9s13.9,30.9,30.9,30.9s30.9-13.9,30.9-30.9
			S374,136.1,356.9,136.1z"/>
	</g>
	<g id="XMLID_188_">
		<path id="XMLID_445_" class="st0" d="M155.1,314.1c-26.2,0-47.5-21.3-47.5-47.5c0-26.2,21.3-47.5,47.5-47.5s47.5,21.3,47.5,47.5
			C202.6,292.8,181.3,314.1,155.1,314.1z M155.1,235.7c-17,0-30.9,13.9-30.9,30.9s13.9,30.9,30.9,30.9s30.9-13.9,30.9-30.9
			S172.1,235.7,155.1,235.7z"/>
	</g>
	<g id="XMLID_187_">
		<path id="XMLID_442_" class="st0" d="M355.7,409.3c-26.2,0-47.5-21.3-47.5-47.5c0-26.2,21.3-47.5,47.5-47.5
			c26.2,0,47.5,21.3,47.5,47.5C403.3,387.9,381.9,409.3,355.7,409.3z M355.7,330.8c-17,0-30.9,13.9-30.9,30.9s13.9,30.9,30.9,30.9
			c17,0,30.9-13.9,30.9-30.9S372.7,330.8,355.7,330.8z"/>
	</g>
	<g id="XMLID_186_">
		<path id="XMLID_441_" class="st0" d="M319,355.7c-1.2,0-2.4-0.3-3.6-0.8l-124.7-59.5c-4.2-2-5.9-7-3.9-11.1s6.9-5.9,11.1-3.9
			l124.7,59.5c4.2,2,5.9,7,3.9,11.1C325.1,353.9,322.1,355.7,319,355.7z"/>
	</g>
	<g id="XMLID_185_">
		<path id="XMLID_440_" class="st0" d="M194,253.7c-3.1,0-6-1.7-7.5-4.6c-2-4.1-0.4-9.1,3.8-11.2l125.3-62.1c4.1-2,9.1-0.4,11.2,3.8
			c2,4.1,0.4,9.1-3.8,11.2l-125.3,62.1C196.5,253.4,195.3,253.7,194,253.7z"/>
	</g>
</g>
<g id="XMLID_985_">
	<g id="XMLID_997_">
		<path id="XMLID_1001_" class="st1" d="M-1219-1104.2c3.2,0,3.2-5,0-5C-1222.2-1109.2-1222.2-1104.2-1219-1104.2L-1219-1104.2z"/>
	</g>
</g>
</svg>
