<?xml version="1.0" encoding="utf-8"?>
<!-- Generator: Adobe Illustrator 19.0.0, SVG Export Plug-In . SVG Version: 6.00 Build 0)  -->
<svg version="1.1" id="Layer_1" xmlns="http://www.w3.org/2000/svg" xmlns:xlink="http://www.w3.org/1999/xlink" x="0px" y="0px"
	 viewBox="0 0 512 512" style="enable-background:new 0 0 512 512;" xml:space="preserve">
<style type="text/css">
	.st0{fill:#FFFFFF;}
	.st1{fill:#010101;}
</style>
<g id="XMLID_250_">
	<g id="XMLID_255_">
		<path id="XMLID_407_" class="st0" d="M259.7,444.4c-98.2,0-178.1-79.9-178.1-178.1c0-40.8,14.2-80.8,39.9-112.4
			c2.9-3.6,8.1-4.1,11.7-1.2c3.6,2.9,4.1,8.1,1.2,11.7c-23.3,28.7-36.2,64.8-36.2,101.9c0,89,72.4,161.5,161.5,161.5
			s161.5-72.4,161.5-161.5s-72.4-161.5-161.5-161.5c-27.7,0-55,7.1-78.9,20.6c-4,2.3-9.1,0.8-11.3-3.2c-2.3-4-0.8-9.1,3.2-11.3
			c26.4-14.9,56.6-22.7,87.1-22.7c98.2,0,178.1,79.9,178.1,178.1C437.8,364.5,357.9,444.4,259.7,444.4z"/>
	</g>
	<g id="XMLID_251_">
		<g id="XMLID_253_">
			<g id="XMLID_254_">
				<circle id="XMLID_5_" class="st0" cx="259.7" cy="190.1" r="19"/>
			</g>
		</g>
		<g id="XMLID_252_">
			<rect id="XMLID_689_" x="249.8" y="232" class="st0" width="19.8" height="129.5"/>
		</g>
	</g>
</g>
<g id="XMLID_985_">
	<g id="XMLID_997_">
		<path id="XMLID_1001_" class="st1" d="M-3307-1104.2c3.2,0,3.2-5,0-5C-3310.2-1109.2-3310.2-1104.2-3307-1104.2L-3307-1104.2z"/>
	</g>
</g>
</svg>
